{
    "Expense" : ["expense.core", "RSE_financial_report.uml"],
    "Summary" : ["summary.core", "RSE_financial_report.uml"],
    "Donor" : ["donor.core", "RSE_financial_report.uml"],
    "Income" : ["income.core", "RSE_financial_report.uml"],
    "AutomaticReport" : ["coa.core", "RSE_financial_report.uml"],
	"Activity" : ["program.core", "RSE_financial_report.uml"]
}
